{
  "type": "minecraft:crafting_shaped",
  "pattern": [
    "iii",
    "iBi",
    "iii"
  ],
  "key": {
    "B": {"item": "minecraft:barrel"},
    "i": {"item": "minecraft:apple"}
  },
  "result": {
    "item": "barrelcraft:cider_barrel",
    "count": 1
  }
}
